﻿Folio: 790.1
N° de Empleado: 90006736
Nombre Empleado: juan chavez
Fecha: 10/03/2020


82ba67d9f51d1114a8ee1e826b941ac7		js\expedienteIdentificacion.js
***********************************************************************************************************
Folio: 1308.1
N° de Empleado: 98644548
Nombre Empleado: Pedro Ávila
Fecha: 27/02/2020

84b63491ecbebfd018a87f450d41dfc6		js\expedienteIdentificacion.js
************************************************************************************************************
Folio: 1167
N° de Empleado: 97211206
Nombre Empleado: Jose Frias
Fecha: 15/11/2019

8a0f07eb6849b370ed4558ba7ae65924		indexExpedienteIdentificacion.php
************************************************************************************************************
Folio: 1121
N° de Empleado: 98106201
Nombre Empleado: Santiago Peñuñuri
Fecha: 21/10/2019

fd7b5c1f0db916f567917c57d16f0658		js\expedienteIdentificacion.js
************************************************************************************************************

Folio: 546.1
N° de Empleado: 99802032
Nombre Empleado: Sergio Gil
Fecha: 22/06/2019

223a8c637459b64de6fcbb3e01a7c2a9		indexExpedienteIdentificacion.php
b81432d464080855bd2b94b2eaa2f72d		js\expedienteIdentificacion.js
************************************************************************************************************
Folio: 546.1
N° de Empleado: 99802033
Nombre Empleado: Gerardo Cabrera
Fecha: 18/06/2019

ed58630c012d97d0142a188ecaa410e0		php\Clases\CExpedienteIdentificacion.php
************************************************************************************************************
Folio: 546.1
N° de Empleado: 99802033
Nombre Empleado: Gerardo Cabrera
Fecha: 11/06/2019

37b6086bd0dc240d5ca1c4afb9888ff8		js\expedienteIdentificacion.js
6d129ce05c7e0db8d3db51c022dab3b4		php\Clases\CExpedienteIdentificacion.php
************************************************************************************************************
Folio: 546.1
N° de Empleado: 99802033
Nombre Empleado: Gerardo Cabrera
Fecha: 09/05/2019

37b6086bd0dc240d5ca1c4afb9888ff8		js\expedienteIdentificacion.js
************************************************************************************************************
Folio: 546.1
N° de Empleado: 99802033
Nombre Empleado: Gerardo Cabrera
Fecha: 03/05/2019

3f2e31333477abaf7d5df78a5435641b		js\expedienteIdentificacion.js
************************************************************************************************************
Folio: 752.1
N° de Empleado: 99802068
Nombre Empleado: Luis Gonzalez
Fecha: 29/04/2019

699d1b35ec6d28439f5a5728cdf5e4f6		js\expedienteIdentificacion.js
69c2a845306d966dff3ad20603a3707e		php\Clases\CExpedienteIdentificacion.php
068c862bd51466ecba9322b685d2d645		php\expedienteIdentificacion.php
53383c84c5ff71041195831fd3ff31ea		indexExpedienteIdentificacion.php
************************************************************************************************************
Folio: 752.1
N° de Empleado: 96662964
Nombre Empleado: Edgar López
Fecha: 22/04/2019

c38376bbca167ea1c109666f4fb4699f		js\expedienteIdentificacion.js
6bf2944e19a0389a1e4c2db9a58ca55f		php\Clases\CExpedienteIdentificacion.php
068c862bd51466ecba9322b685d2d645		php\expedienteIdentificacion.php
53383c84c5ff71041195831fd3ff31ea		indexExpedienteIdentificacion.php
************************************************************************************************************
Folio: 546.1
N° de Empleado: 99802033
Nombre Empleado: Gerardo Cabrera
Fecha: 27/03/2019

da4663297815be9210c5e78f07e55244		js\expedienteIdentificacion.js
e971b62873f58bb527750a44505d41b8		php\Clases\CMetodoGeneral.php
0248d58508398b7d11460248c2529373		php\Clases\CExpedienteIdentificacion.php
9765ba467c46f42bbb453331af29fd3e		php\Clases\Capirestexpedienteidentificacion.php
e34fc54d29733239e96e9cd5692e9c8e		php\expedienteIdentificacion.php
3459164cd07052804d09ecb20ef1fe34		indexExpedienteIdentificacion.php
************************************************************************************************************
Folio: 476.1
N° de Empleado: 98526758
Nombre Empleado: Jose Angel Diaz
Fecha: 11/02/2019

6758f5e83dbd38c7d5e7bd7fd5806d18		js\expedienteIdentificacion.js
************************************************************************************************************
Folio: 476.1
N° de Empleado: 98526758
Nombre Empleado: Jose Angel Diaz
Fecha: 31/01/2019

830e95e7531a071393c11672c167b603		indexExpedienteIdentificacion.php
6c923acc58273d8f1f22bd4992d506dd		js\expedienteIdentificacion.js
09738424fe370e8d24bb549f56234b77		\css\EstilosAFOP.css
************************************************************************************************************
Folio: 476.1
N° de Empleado: 98526758
Nombre Empleado: Jose Angel Diaz
Fecha: 21/11/2018

bb981328d287d0ee0faf499698a48f71		js\expedienteIdentificacion.js
9387d088cf272e7bc79d47ca3399a16c		indexExpedienteIdentificacion.php
************************************************************************************************************
Folio: 333
N° de Empleado: 98138782
Nombre Empleado: Jesús Eduardo Monrreal
Fecha: 08/10/2018

23c2fb26c8e7392ce272462527cfbc36		js\expedienteIdentificacion.js
************************************************************************************************************
Folio: 316.2
N° de Empleado: 97255416
Nombre Empleado: Andrés Figueroa
Fecha: 05/09/2018

b347b4348f45bbd6194599064cb0541c		js\expedienteIdentificacion.js
************************************************************************************************************

Folio: 316.2
N° de Empleado: 97255416
Nombre Empleado: Andrés Figueroa
Fecha: 27/08/2018

4f81d95ba0b1f6af031a79a20d3d5cef		js\expedienteIdentificacion.js
b877f3237d69e37aa173d42d7945f0ce		php\expedienteIdentificacion.php
ac9c5b1060487c3fd382d7c2be2a2448		php\Clases\CExpedienteIdentificacion.php
************************************************************************************************************

Folio: 94.1
N° de Empleado: 98562223
Nombre Empleado: César Ceballos
Fecha: 24/08/2018

d584b32c7b6929284ef7d46cc7d92735		js\expedienteIdentificacion.js
************************************************************************************************************
Folio: 94.1
N° de Empleado: 98562223
Nombre Empleado: César Ceballos
Fecha: 22/08/2018

641ca7940982437c6ce4c319ee2592d7		js\expedienteIdentificacion.js
0dd8db56828c1284718d4b0b9eba3275		php\expedienteIdentificacion.php
723ae090c5cac769bc31854dc62c068d		php\Clases\CExpedienteIdentificacion.php
************************************************************************************************************
Folio: 94.1
N° de Empleado: 98562223
Nombre Empleado: César Ceballos
Fecha: 21/08/2018

d88ac29a8f0d341e78aa8c6109a5851e		js\expedienteIdentificacion.js
092aaab0411bc2b2c196d03cf16b8028		php\expedienteIdentificacion.php
6824e47605a3ca442a565a26f8d427cb		php\Clases\CExpedienteIdentificacion.php
************************************************************************************************************
Folio: 392.1
N° de Empleado: 95029869
Nombre Empleado: Joel Molina
Fecha: 07/06/2018


8aeb2b6eff57365d152e15fee87d4338	indexBeneficiarios.html
5ba246c39110e4354edc424662563fe9	indexExpedienteIdentificacion.php
afd78aaf1ab670345fc9df46d48f5731	css\estilos.css
0f0246e00a0a88f505db60da65d95308	css\EstilosAFOP.css
e9f8ed0d27d7e8676e074407499e3cc6	imagenes\logo_aforecoppel.png
34894c9f932716026c60c2552436ad0a	imagenes\Thumbs.db
250125113c8ef9d18baf8ca092d6febb	js\addimage.js
9f8f758f7853491e8ae8c5ee398ba4a0	js\beneficiarios.js
6a95d5e3891fe85eae56646702498478	js\definiciones.js
3d49a97b17f0c4f60926f2e6c99ac65e	js\expedienteIdentificacion.js
1b2cc84c5847dae4a985eb3d9af6eab9	js\jquery.blockUI.js
6abb978ebb792c27e0fee5984802b743	js\jspdf.js
ad41b9435648639bf31d372a718ba20c	php\beneficiarios.php
d2d55fd6610d552c37751fcc16121e2f	php\expediente.php
092aaab0411bc2b2c196d03cf16b8028	php\expedienteIdentificacion.php
8f7bc752ca09d1748e9e699204ce875e	php\generarPDF.php
eb0e5a25d05a49743efe7cdc7ae05689	php\JSON.php
eb78018daddf2eb37ff4cb57758f2a68	php\Clases\CBeneficiarios.php
046c64643fa378f05330ac0a55e9b11b	php\Clases\CCatalogo.php
d05684924711a513491a0d9b1e8aa1da	php\Clases\CExpedienteIdentificacion.php
d93e91ffe10847522bb94a817856e966	php\Clases\CLog.php
4b5942cf312446172e012b50b3707259	php\Clases\CMetodoExpedienteServicio.php
e971b62873f58bb527750a44505d41b8	php\Clases\CMetodoGeneral.php
d53386205ef88f29f0d8ca163cbf1328	php\Clases\CServicioBusTramites.php
d8919ddf3132b32dc8d9981a65aa14ab	php\Clases\fpdf.php
42e0b439d24a9b8fb072b5831e40f77b	php\Clases\global.php
9a17b1ea48d6e9ca9fac8b622cfff3a2	php\Clases\InvocaServicioBusTramite.php
ae8e535deec20eb8d691753c4b21f3e5	php\Clases\ObtencionRespuesta.php
ca6fb483549604fb4a675f9e28a73b02	php\Clases\font\courier.php
a58d7dadf3cf564ca5d5138cea76a3a9	php\Clases\font\courierb.php
c0e416771dc56cb2397390978d112dc2	php\Clases\font\courierbi.php
419961dbeeb20f08da780dccb427dec8	php\Clases\font\courieri.php
fc53162b924ddd522bd6cfe86fab48f4	php\Clases\font\helvetica.php
4e9ffda682a131fef2e04ccd94aa342d	php\Clases\font\helveticab.php
6db8943bd91bf13514b82872cf160d45	php\Clases\font\helveticabi.php
13b795df0c33eb93c48621792f2ea12d	php\Clases\font\helveticai.php
fbd9250c21af99f6398d6f817511f91f	php\Clases\font\symbol.php
82bc100f1f3bd8b2d9b7fb5ee8f44b3a	php\Clases\font\times.php
3a241a1658bf9ea2062e63f464166c31	php\Clases\font\timesb.php
bfdd0235a71793becefff778c2b16243	php\Clases\font\timesbi.php
17fd69f176915a2113fe28057b43a75e	php\Clases\font\timesi.php
2848ab2daf3128f310b5cf713ca4acee	php\Clases\font\zapfdingbats.php
8b4c9c06b1ea96a2a306a914cd3c87ae	php\Clases\librerias\class.nusoap_base.php
e5a17c084a5ff238bb05b0c9a42c27cf	php\Clases\librerias\class.soapclient.php
7e2591547b0a65a5babf163d8ede2f36	php\Clases\librerias\class.soap_fault.php
79162f6e5611401c9cc52896d7a6a8d5	php\Clases\librerias\class.soap_parser.php
b8ac3eb72109c5607b306a0e4a746a08	php\Clases\librerias\class.soap_server.php
741cdb90157e4855fea6e5b7159717fd	php\Clases\librerias\class.soap_transport_http.php
24b1e86ccd1b37cd44b2791a280119ce	php\Clases\librerias\class.soap_val.php
ac7510548e32390774811f25538ff109	php\Clases\librerias\class.wsdl.php
46720a0c5fa3cb1a6ded210dfa81c2db	php\Clases\librerias\class.wsdlcache.php
4074d83fb0e4916f531eb88fa89ed7eb	php\Clases\librerias\class.xmlschema.php
b602d94f5a63e168ab0d6a199c5af6a0	php\Clases\librerias\nusoap.php
93d0345d2472cf7947b329c9a4410e49	php\Clases\librerias\nusoapmime.php
a83e0c47b01bddb7e44607729a7d7cac	wsmoduloafore\wsconf.dat
683317b3cb16b6aee3af81ed53124e16	wsmoduloafore\wsModuloAfore.wsdl
